C 
C... Variables in Common Block /acfst/ ... 
      real*8 ACFPTH(0:24),ACFPER(0:mc),ACFPEM(0:24),ACFATH(0:24),
     $       ACFAER(0:mc),ACFAEM(0:24),ACFSTH(0:24),ACFSER(0:mc),
     $       ACFSEM(0:24),ACFCTH(0:24),ACFCER(0:mc),ACFCEM(0:24),
     $       ACFITH(0:24),ACFIER(0:mc),ACFIEM(0:24)
      common /acfst/ ACFPTH,ACFPER,ACFPEM,ACFATH,ACFAER,ACFAEM,ACFSTH,
     $               ACFSER,ACFSEM,ACFCTH,ACFCER,ACFCEM,ACFITH,ACFIER,
     $               ACFIEM
