      character Revision*4
      character Build*19
      character compdate*100
      Revision='657'
      Build='2012/11/28 12:09:23'
      compdate='Revision: '//Revision//' Build: ' // Build
