C 
C... Variables in Common Block /Crosscorr/ ... 
      real*8 crciem(-mc:mc),crcier(-mc:mc),crpcem(-mc:mc),
     $       crpcer(-mc:mc),crpiem(-mc:mc),crpier(-mc:mc),
     $       crpsem(-mc:mc),crpser(-mc:mc),crscem(-mc:mc),
     $       crscer(-mc:mc),crsiem(-mc:mc),crsier(-mc:mc)
      common /crosscorr/ crciem,crcier,crpcem,crpcer,crpiem,crpier,
     $               crpsem,crpser,crscem,crscer,crsiem,crsier
