C 
C... Variables in Common Block /crossfinal/ ... 
      real*8 CRSSA,CRTSA,CRTS,CRIRSA,CRIRS,CRIRT,CRCYCSA,CRCYCS,CRCYCT,
     $       CRCYCIR
      common /crossfinal/ CRSSA,CRTSA,CRTS,CRIRSA,CRIRS,CRIRT,CRCYCSA,
     $                    CRCYCS,CRCYCT,CRCYCIR
