C 
C... Variables in Common Block /dets/ ... 
      integer SeasCheck,nround,Nres0,Nres1
	  integer q0,df0,imean0,bq0,bd0,Init0
      real*8 Va0,Va1,Jb0,Jb1,Acf1,Seacf1
      common /dets/ SeasCheck,nround,Nres0,Nres1,
     $              q0,df0,imean0,bq0,bd0,Init0,
     $              Va0,Va1,Jb0,Jb1,Acf1,Seacf1

