c    DIMENSIONS.i
          integer nfrq,nw2
          parameter (nfrq=61,nw2=600)
          integer MP,kp,mpkp
          parameter(MP=POBS,KP=PFCST,mpkp=MP+KP)
          integer maxTh
          parameter (maxTh=40)
          integer KL
          parameter (KL=PFCST)
 