C
C... Variables in Common Block /matrix1/ ...
      character Pat,Tmcs,Ana,Sf,Cvar,Ccc,
     $        CmtTc,CmtS,CmtIR,CmtTs,CmtSA
      integer Nmmu,Nmp,Nmd,Nmq,Nmbp,Nmbd,Nmbq
      real*8 Sd
      common /matrix1/ Sd,Nmmu,Nmp,Nmd,Nmq,Nmbp,Nmbd,Nmbq,
     $                 Cvar,Ccc,CmtTc,CmtS,CmtIR,CmtTs,CmtSA,
     $                 Pat,Tmcs,Ana,Sf
