      INTEGER nSeatsSer,noTratadas,wSposBphi,wSstochTD,wSstatseas
	  DOUBLE PRECISION wSrmod,wSxl
	  common /cnsums/wSrmod,wSxl,nSeatsSer,noTratadas,wSposBphi,
     $              wSstochTD,wSstatseas
