C 
C... Variables in Common Block /prtous/ ... 
      integer xotab,ptab,ntab,stab,caltab,uctab,patab,cytab,
     $        ltptab,ertab,rg0tab,rgsatab,stptab,stntab,
     $        utab,ctab,rtptab,rtsatab
      common /prtous/ xotab,ptab,ntab,stab,caltab,uctab,patab,cytab,
     $        ltptab,ertab,rg0tab,rgsatab,stptab,stntab,utab,ctab,
     $        rtptab,rtsatab
