C
C... Variables in Common Block /seasTest/ ...
      integer OST,crQS,crSNP,crPeaks
	  integer totalSeasTR,totalSeasSA,totalSeasIR
      common /seasTest/ OST,crQS,crSNP,crPeaks,
     $     totalSeasTR,totalSeasSA,totalSeasIR
