C
C... Variables in Common Block /savefcast/ ...
      integer NSFCAST,NSFCAST1
C..
C This variable is for test to be removed
C
      integer Iseasse
      real*8 SQFSAVE
      real*8 SFCAST(KP)
      common /savefcast/ SFCAST,SQFSAVE,NSFCAST,Iseasse,NSFCAST1
