c          TransCad.i 
c          TransLcad="TRANSITORY" or "TD-STOCHASTIC"
c          TransCad="TRANS" or "TD.Stoch"
           character*20 transLcad,transCad
		   integer nTransLcad,nTransCad
		   common /transCad/ transLCad,TransCad,nTransLcad,nTransCad